{
  "id": "RectList",
  "$schema": "http://json-schema.org/draft-07/schema#",
  "description": "A representation of a list of rectangles",
  "type": "object",
  "properties": {
    "rects": {
      "type": "array",
      "items": { "$ref": "#/definitions/rect" }
    }
  },
  "definitions": {
    "rect": {
      "type": "object",
      "required": [ "x", "y", "w", "h" ],
      "properties": {
        "x": {
          "type": "integer",
          "description": "X-coordinate of the top-left corner."
        },
        "y": {
          "type": "integer",
          "description": "Y-coordinate of the top-left corner."
        },
        "w": {
          "type": "integer",
          "description": "width of the rectangle."
        },
        "h": {
          "type": "integer",
          "description": "height of the rectangle."
        }
      }
    }
  }
}